…
> data <- read_csv("MIE.csv")
Parsed with column specification:
cols(
  id = col_integer(),
  visit = col_integer(),
  room = col_character(),
  value = col_double(),
  timepoint = col_integer()
)
> x <- make_LD(data)
> print(class(x))
[1] "LongitudinalData"
> print(x)
$df
# A tibble: 120,877 x 5
      id visit room    value timepoint
   <int> <int> <chr>   <dbl>     <int>
 1    14     0 bedroom  6.00        53
 2    14     0 bedroom  6.00        54
 3    14     0 bedroom  2.75        55
 4    14     0 bedroom  2.75        56
 5    14     0 bedroom  2.75        57
 6    14     0 bedroom  2.75        58
 7    14     0 bedroom  6.00        59
 8    14     0 bedroom  6.00        60
 9    14     0 bedroom  2.75        61
10    14     0 bedroom  2.75        62
# ... with 120,867 more rows
…
